[gd_resource type="TileSet" load_steps=4 format=2]

[ext_resource path="res://textures/Wall.png" type="Texture" id=1]

[sub_resource type="OccluderPolygon2D" id=1]

closed = false
cull_mode = 0
polygon = PoolVector2Array( 0, 0, 64, 64, 32, 32, 64, 0, 0, 64 )

[sub_resource type="ConvexPolygonShape2D" id=2]

custom_solver_bias = 0.0
points = PoolVector2Array( 0, 0, 64, 0, 64, 64, 0, 64 )

[resource]

0/name = "Wall"
0/texture = ExtResource( 1 )
0/tex_offset = Vector2( 0, 0 )
0/modulate = Color( 1, 1, 1, 1 )
0/region = Rect2( 0, 0, 64, 64 )
0/tile_mode = 0
0/occluder_offset = Vector2( 0, 0 )
0/occluder = SubResource( 1 )
0/navigation_offset = Vector2( 0, 0 )
0/shapes = [ {
"autotile_coord": Vector2( 0, 0 ),
"one_way": false,
"shape": SubResource( 2 ),
"shape_transform": Transform2D( 1, 0, 0, 1, 0, 0 )
} ]
0/z_index = 0

